This is BibTeX, Version 0.99dThe top-level auxiliary file: book.aux
A level-1 auxiliary file: pref.aux
A level-1 auxiliary file: chapter.aux
I found no \citation commands---while reading file book.aux
I found no \bibdata command---while reading file book.aux
I found no \bibstyle command---while reading file book.aux
(There were 3 error messages)
