\relax 
\@writefile{toc}{\contentsline {chapter}{\numberline {1}Basi del Machine Learning}{1}}
\@writefile{lof}{\addvspace {10\p@ }}
\@writefile{lot}{\addvspace {10\p@ }}
\newlabel{intro}{{1}{1}}
\@writefile{toc}{\contentsline {section}{\numberline {1.1}Machine Learning}{1}}
\@writefile{toc}{\contentsline {section}{\numberline {1.2}Learning Algorithms}{1}}
\@writefile{toc}{\contentsline {section}{\numberline {1.3}Algoritmi per tipologia di apprendimento}{2}}
\@writefile{toc}{\contentsline {subsection}{\numberline {1.3.1}Apprendimento supervisionato}{2}}
\@writefile{toc}{\contentsline {subsection}{\numberline {1.3.2}Apprendimento non supervisionato}{2}}
\newlabel{fig:super}{{1.3.1}{3}}
\newlabel{fig:super}{{1.3.2}{3}}
\@writefile{toc}{\contentsline {subsection}{\numberline {1.3.3}Learning con controllo parziale}{3}}
\newlabel{fig:super}{{1.3.3}{4}}
\@writefile{toc}{\contentsline {section}{\numberline {1.4} Algoritmi raggruppati per somiglianza}{4}}
\@writefile{toc}{\contentsline {subsection}{\numberline {1.4.1}Algoritmi di regressione}{4}}
\@writefile{toc}{\contentsline {subsection}{\numberline {1.4.2}Algoritmi Albero di decisione}{4}}
\newlabel{fig:super}{{1.4.1}{5}}
\newlabel{fig:super}{{1.4.2}{5}}
\@writefile{toc}{\contentsline {subsection}{\numberline {1.4.3}Algoritmi bayesiani}{5}}
\newlabel{fig:super}{{1.4.3}{6}}
\@writefile{toc}{\contentsline {subsection}{\numberline {1.4.4}Algoritmi di clustering}{6}}
\@writefile{toc}{\contentsline {subsection}{\numberline {1.4.5}Association rule learning}{6}}
\newlabel{fig:super}{{1.4.4}{7}}
\newlabel{fig:super}{{1.4.5}{7}}
\@writefile{toc}{\contentsline {subsection}{\numberline {1.4.6}Artificial Neural Network }{7}}
\@writefile{toc}{\contentsline {subsection}{\numberline {1.4.7}Deep Learning Algorithms}{7}}
\newlabel{fig:super}{{1.4.6}{8}}
\newlabel{fig:super}{{1.4.7}{8}}
\@writefile{toc}{\contentsline {chapter}{\numberline {2}Deep Learning}{9}}
\@writefile{lof}{\addvspace {10\p@ }}
\@writefile{lot}{\addvspace {10\p@ }}
\newlabel{capDue}{{2}{9}}
\@writefile{toc}{\contentsline {section}{\numberline {2.1}Introduzione}{9}}
\newlabel{Riconoscimento tramite immagini attraverso un servizio fornito da Google}{{2.1}{9}}
\@writefile{toc}{\contentsline {section}{\numberline {2.2}Riconoscimento di oggetti attraverso Deep Learning}{10}}
\newlabel{fig:super}{{2.2}{10}}
\@writefile{toc}{\contentsline {section}{\numberline {2.3}Dataset MNIST}{10}}
\newlabel{fig:super}{{2.3}{10}}
\newlabel{fig:super}{{2.3}{11}}
\newlabel{fig:super}{{2.3}{11}}
\newlabel{fig:super}{{2.3}{11}}
\newlabel{fig:super}{{2.3}{12}}
\@writefile{toc}{\contentsline {section}{\numberline {2.4}Tunnel Vision}{12}}
\newlabel{fig:super}{{2.4}{12}}
\newlabel{fig:super}{{2.4}{12}}
\newlabel{fig:super}{{2.4}{13}}
\newlabel{fig:super}{{2.4}{13}}
\newlabel{fig:super}{{2.4}{13}}
\@writefile{toc}{\contentsline {section}{\numberline {2.5}Circonvoluzione}{13}}
\newlabel{fig:super}{{2.5}{14}}
\newlabel{fig:super}{{2.5}{15}}
\newlabel{fig:super}{{2.5}{15}}
\newlabel{fig:super}{{2.5}{16}}
\newlabel{fig:super}{{2.5}{16}}
\newlabel{fig:super}{{2.5}{16}}
\newlabel{fig:super}{{2.5}{17}}
\newlabel{fig:super}{{2.5}{17}}
\@writefile{toc}{\contentsline {chapter}{\numberline {3}Riconoscimento di veicoli}{19}}
\@writefile{lof}{\addvspace {10\p@ }}
\@writefile{lot}{\addvspace {10\p@ }}
\newlabel{riconscimento veicoli}{{3}{19}}
\@writefile{toc}{\contentsline {section}{\numberline {3.1}Raccolta dati}{19}}
\@writefile{toc}{\contentsline {section}{\numberline {3.2}Keras}{20}}
\@writefile{toc}{\contentsline {section}{\numberline {3.3}Data pre-processing and data augmentation}{21}}
\@writefile{toc}{\contentsline {section}{\numberline {3.4}Addestramento delle rete}{24}}
\@writefile{toc}{\contentsline {section}{\numberline {3.5}Risultati ottenuti}{26}}
\@writefile{toc}{\contentsline {section}{\numberline {3.6}Support Vector Machine e KNearest}{26}}
\@writefile{toc}{\contentsline {section}{\numberline {3.7}Risultati ottenuti}{29}}
\@writefile{toc}{\contentsline {section}{\numberline {3.8}Conclusione}{30}}
\@setckpt{chapter}{
\setcounter{page}{31}
\setcounter{equation}{0}
\setcounter{enumi}{0}
\setcounter{enumii}{0}
\setcounter{enumiii}{0}
\setcounter{enumiv}{0}
\setcounter{footnote}{0}
\setcounter{mpfootnote}{0}
\setcounter{part}{0}
\setcounter{section}{8}
\setcounter{subsection}{0}
\setcounter{subsubsection}{0}
\setcounter{paragraph}{0}
\setcounter{subparagraph}{0}
\setcounter{figure}{0}
\setcounter{table}{0}
\setcounter{chapter}{3}
\setcounter{theorem}{0}
\setcounter{prob}{0}
\setcounter{merk}{0}
\setcounter{pp@next@reset}{0}
\setcounter{lstnumber}{30}
\setcounter{lstlisting}{0}
}
